[gd_scene load_steps=5 format=3 uid="uid://dl77ahsm1mtms"]

[ext_resource type="PackedScene" uid="uid://c6j502r51l3wg" path="res://building_blocks/dynamic_rail/dynamic_rail.tscn" id="1_p5li2"]
[ext_resource type="Texture2D" uid="uid://hhdlihyxu5r4" path="res://assets/placeholders/enemy3.png" id="2_8yv5q"]
[ext_resource type="PackedScene" uid="uid://bhfju8cvcq5m7" path="res://building_blocks/controllers/enemy_controller/enemy_controller.tscn" id="3_wc5sy"]

[sub_resource type="RectangleShape2D" id="RectangleShape2D_mkat1"]
size = Vector2(169, 169.5)

[node name="Inky" instance=ExtResource("1_p5li2")]
speed_factor = 4.0

[node name="Passenger" type="Area2D" parent="." index="3"]
collision_layer = 4
collision_mask = 2

[node name="CollisionShape2D" type="CollisionShape2D" parent="Passenger" index="0"]
position = Vector2(0, -0.25)
shape = SubResource("RectangleShape2D_mkat1")

[node name="Placeholder" type="Sprite2D" parent="Passenger" index="1"]
texture = ExtResource("2_8yv5q")

[node name="EnemyController" parent="Passenger" index="2" instance=ExtResource("3_wc5sy")]
behaviour = 2
first_recovery_time = 6.0

[connection signal="body_entered" from="Passenger" to="Passenger/EnemyController" method="catched"]
