[gd_scene load_steps=3 format=3 uid="uid://deg43lc71qxiw"]

[ext_resource type="Script" path="res://building_blocks/controllers/user_controller/user_controller.gd" id="1_62u2j"]

[sub_resource type="LabelSettings" id="LabelSettings_0sa16"]
font_size = 24
font_color = Color(0, 0.345098, 1, 1)

[node name="UserController" type="Node2D"]
script = ExtResource("1_62u2j")

[node name="Up" type="Label" parent="."]
offset_left = -22.0
offset_top = -86.0
offset_right = 19.0
offset_bottom = -43.0
text = "UP"
label_settings = SubResource("LabelSettings_0sa16")
horizontal_alignment = 1
vertical_alignment = 1

[node name="Down" type="Label" parent="."]
offset_left = -46.0
offset_top = 34.0
offset_right = 48.0
offset_bottom = 77.0
text = "DOWN"
label_settings = SubResource("LabelSettings_0sa16")
horizontal_alignment = 1
vertical_alignment = 1

[node name="Left" type="Label" parent="."]
offset_left = -81.0
offset_top = -22.0
offset_right = -18.0
offset_bottom = 21.0
text = "LEFT"
label_settings = SubResource("LabelSettings_0sa16")
horizontal_alignment = 1
vertical_alignment = 1

[node name="Right" type="Label" parent="."]
offset_left = -5.0
offset_top = -22.0
offset_right = 82.0
offset_bottom = 21.0
text = "RIGHT"
label_settings = SubResource("LabelSettings_0sa16")
horizontal_alignment = 1
vertical_alignment = 1
