[gd_scene load_steps=4 format=3 uid="uid://b3nx1448s1sat"]

[ext_resource type="TileSet" uid="uid://cu8ey0v55f6iq" path="res://tilesets/main_tileset.tres" id="1_tanky"]
[ext_resource type="Texture2D" uid="uid://b8spcg6v514dt" path="res://assets/placeholders/player1.png" id="2_53qxq"]
[ext_resource type="PackedScene" path="res://building_blocks/tile_map_hook/tile_map_hook.tscn" id="3_ef18j"]

[node name="TileMapHookPlayground" type="Node2D"]

[node name="Maze" type="TileMap" parent="."]
tile_set = ExtResource("1_tanky")
format = 2
layer_0/tile_data = PackedInt32Array(65537, 589825, 2, 131073, 589825, 2, 131072, 524289, 1, 65536, 524289, 1, 196609, 589825, 2, 196608, 524289, 1, 262145, 589825, 2, 262144, 524289, 1, 262146, 589825, 2, 196610, 589825, 2, 262147, 589825, 2, 196611, 589825, 2, 262148, 589825, 2, 196612, 589825, 2, 262149, 589825, 2, 196613, 589825, 2, 262150, 589825, 2, 196614, 589825, 2, 262151, 589825, 2, 196615, 589825, 2, 262152, 589825, 2, 196616, 589825, 2, 262153, 589825, 2, 196617, 589825, 2, 262154, 720897, 2, 196618, 393217, 2, 131082, 393217, 1, 131081, 589825, 2, 65546, 720897, 2, 65545, 589825, 2, 65544, 589825, 2, 8, 655361, 0, 9, 655361, 0, 10, 720897, 0, 65543, 589825, 2, 7, 655361, 0, 65542, 589825, 2, 6, 655361, 0, 65541, 589825, 2, 5, 655361, 0, 65540, 589825, 2, 4, 655361, 0, 65539, 589825, 2, 3, 655361, 0, 65538, 589825, 2, 131074, 589825, 2, 131075, 589825, 2, 131076, 589825, 2, 131077, 589825, 2, 131078, 589825, 2, 131079, 589825, 2, 131080, 589825, 2, 327681, 589825, 3, 327680, 524289, 3, 327682, 589825, 3, 327683, 589825, 3, 327684, 589825, 3, 327685, 327681, 2, 327686, 393217, 2, 327687, 589825, 3, 327688, 589825, 3, 327689, 589825, 3, 327690, 720897, 3, 196619, 589825, 3, 131083, 655361, 0, 393222, 720897, 2, 393221, 524289, 1, 458758, 720897, 3, 458757, 524289, 3, 2, 655361, 0, 1, 655361, 0, 0, 524289, 0, 393216, 655361, 1, 393217, 655361, 1, 393218, 655361, 1, 393219, 655361, 1, 393220, 655361, 1, 458756, 655361, 1, 458755, 655361, 1, 458754, 655361, 1, 458753, 655361, 1, 458752, 655361, 1, 524288, 655361, 1, 524289, 655361, 1, 524290, 655361, 1, 524291, 655361, 1, 524292, 655361, 1, 524293, 655361, 1, 524294, 655361, 1, 524295, 655361, 1, 524296, 655361, 1, 524297, 655361, 1, 458762, 655361, 1, 458763, 655361, 1, 458764, 655361, 1, 458765, 655361, 1, 458766, 655361, 1, 524302, 655361, 1, 524301, 655361, 1, 524300, 655361, 1, 524299, 655361, 1, 524298, 655361, 1, 458761, 655361, 1, 458760, 655361, 1, 458759, 655361, 1, 393223, 655361, 1, 393224, 655361, 1, 393225, 655361, 1, 393226, 655361, 1, 393227, 655361, 1, 393228, 655361, 1, 393229, 655361, 1, 393230, 655361, 1, 327694, 655361, 1, 262158, 655361, 1, 196622, 655361, 1, 131086, 655361, 1, 65550, 655361, 1, 14, 655361, 1, 13, 655361, 1, 12, 655361, 1, 11, 655361, 1, 65547, 655361, 1, 65548, 655361, 1, 65549, 655361, 1, 131085, 655361, 1, 131084, 655361, 0, 196620, 589825, 3, 196621, 655361, 1, 262157, 655361, 1, 262156, 655361, 1, 262155, 655361, 1, 327691, 655361, 1, 327692, 655361, 1, 327693, 655361, 1, -393216, 655361, 1, -327680, 655361, 1, -262144, 655361, 1, -196608, 655361, 1, -131072, 655361, 1, -65536, 655361, 1, -393215, 655361, 1, -327679, 655361, 1, -262143, 655361, 1, -196607, 655361, 1, -131071, 655361, 1, -65535, 655361, 1, -393214, 655361, 1, -327678, 655361, 1, -262142, 655361, 1, -196606, 655361, 1, -131070, 655361, 1, -65534, 655361, 1, -393213, 655361, 1, -327677, 655361, 1, -262141, 655361, 1, -196605, 655361, 1, -131069, 655361, 1, -65533, 655361, 1, -393212, 655361, 1, -327676, 655361, 1, -262140, 655361, 1, -196604, 655361, 1, -131068, 655361, 1, -65532, 655361, 1, -393211, 655361, 1, -327675, 655361, 1, -262139, 655361, 1, -196603, 655361, 1, -131067, 655361, 1, -65531, 655361, 1, -393210, 655361, 1, -327674, 655361, 1, -262138, 655361, 1, -196602, 655361, 1, -131066, 655361, 1, -65530, 655361, 1, -393209, 655361, 1, -327673, 655361, 1, -262137, 655361, 1, -196601, 655361, 1, -131065, 655361, 1, -65529, 655361, 1, -393208, 655361, 1, -327672, 655361, 1, -262136, 655361, 1, -196600, 655361, 1, -131064, 655361, 1, -65528, 655361, 1, -393207, 655361, 1, -327671, 655361, 1, -262135, 655361, 1, -196599, 655361, 1, -131063, 655361, 1, -65527, 655361, 1, -393206, 655361, 1, -327670, 655361, 1, -262134, 655361, 1, -196598, 655361, 1, -131062, 655361, 1, -65526, 655361, 1, -393205, 655361, 1, -327669, 655361, 1, -262133, 655361, 1, -196597, 655361, 1, -131061, 655361, 1, -65525, 655361, 1, -393204, 655361, 1, -327668, 655361, 1, -262132, 655361, 1, -196596, 655361, 1, -131060, 655361, 1, -65524, 655361, 1, -393203, 655361, 1, -327667, 655361, 1, -262131, 655361, 1, -196595, 655361, 1, -131059, 655361, 1, -65523, 655361, 1, -393202, 655361, 1, -327666, 655361, 1, -262130, 655361, 1, -196594, 655361, 1, -131058, 655361, 1, -65522, 655361, 1, 589824, 655361, 1, 655360, 655361, 1, 720896, 655361, 1, 786432, 655361, 1, 851968, 655361, 1, 589825, 655361, 1, 655361, 655361, 1, 720897, 655361, 1, 786433, 655361, 1, 851969, 655361, 1, 589826, 655361, 1, 655362, 655361, 1, 720898, 655361, 1, 786434, 655361, 1, 851970, 655361, 1, 589827, 655361, 1, 655363, 655361, 1, 720899, 655361, 1, 786435, 655361, 1, 851971, 655361, 1, 589828, 655361, 1, 655364, 655361, 1, 720900, 655361, 1, 786436, 655361, 1, 851972, 655361, 1, 589829, 655361, 1, 655365, 655361, 1, 720901, 655361, 1, 786437, 655361, 1, 851973, 655361, 1, 589830, 655361, 1, 655366, 655361, 1, 720902, 655361, 1, 786438, 655361, 1, 851974, 655361, 1, 589831, 655361, 1, 655367, 655361, 1, 720903, 655361, 1, 786439, 655361, 1, 851975, 655361, 1, 589832, 655361, 1, 655368, 655361, 1, 720904, 655361, 1, 786440, 655361, 1, 851976, 655361, 1, 589833, 655361, 1, 655369, 655361, 1, 720905, 655361, 1, 786441, 655361, 1, 851977, 655361, 1, 589834, 655361, 1, 655370, 655361, 1, 720906, 655361, 1, 786442, 655361, 1, 851978, 655361, 1, 589835, 655361, 1, 655371, 655361, 1, 720907, 655361, 1, 786443, 655361, 1, 851979, 655361, 1, 589836, 655361, 1, 655372, 655361, 1, 720908, 655361, 1, 786444, 655361, 1, 851980, 655361, 1, 589837, 655361, 1, 655373, 655361, 1, 720909, 655361, 1, 786445, 655361, 1, 851981, 655361, 1, 589838, 655361, 1, 655374, 655361, 1, 720910, 655361, 1, 786446, 655361, 1, 851982, 655361, 1)

[node name="Sprite2d" type="Sprite2D" parent="."]
position = Vector2(100, 20)
scale = Vector2(0.5, 0.5)
texture = ExtResource("2_53qxq")

[node name="TileMapHook" parent="Sprite2d" instance=ExtResource("3_ef18j")]
align_parent = true

[node name="Sprite2d2" type="Sprite2D" parent="."]
position = Vector2(308, 188)
scale = Vector2(0.5, 0.5)
texture = ExtResource("2_53qxq")

[node name="TileMapHook" parent="Sprite2d2" instance=ExtResource("3_ef18j")]
align_parent = true

[node name="Sprite2d3" type="Sprite2D" parent="."]
position = Vector2(440, 310)
scale = Vector2(0.5, 0.5)
texture = ExtResource("2_53qxq")

[node name="TileMapHook" parent="Sprite2d3" instance=ExtResource("3_ef18j")]
align_parent = true

[node name="Sprite2d4" type="Sprite2D" parent="."]
position = Vector2(701, 319)
scale = Vector2(0.5, 0.5)
texture = ExtResource("2_53qxq")

[node name="TileMapHook" parent="Sprite2d4" instance=ExtResource("3_ef18j")]
align_parent = true

[node name="Sprite2d5" type="Sprite2D" parent="."]
position = Vector2(1328, 94)
scale = Vector2(0.5, 0.5)
texture = ExtResource("2_53qxq")

[node name="TileMapHook" parent="Sprite2d5" instance=ExtResource("3_ef18j")]
align_parent = true

[node name="Sprite2d9" type="Sprite2D" parent="."]
position = Vector2(90, 689)
scale = Vector2(0.5, 0.5)
texture = ExtResource("2_53qxq")

[node name="TileMapHook" parent="Sprite2d9" instance=ExtResource("3_ef18j")]
align_parent = true

[node name="Sprite2d10" type="Sprite2D" parent="."]
position = Vector2(1325, 693)
scale = Vector2(0.5, 0.5)
texture = ExtResource("2_53qxq")

[node name="TileMapHook" parent="Sprite2d10" instance=ExtResource("3_ef18j")]
align_parent = true

[node name="Sprite2d11" type="Sprite2D" parent="."]
position = Vector2(1351, 446)
scale = Vector2(0.5, 0.5)
texture = ExtResource("2_53qxq")

[node name="TileMapHook" parent="Sprite2d11" instance=ExtResource("3_ef18j")]
align_parent = true

[node name="Sprite2d12" type="Sprite2D" parent="."]
position = Vector2(704, 693)
scale = Vector2(0.5, 0.5)
texture = ExtResource("2_53qxq")

[node name="TileMapHook" parent="Sprite2d12" instance=ExtResource("3_ef18j")]
align_parent = true

[node name="Sprite2d6" type="Sprite2D" parent="."]
position = Vector2(709, 861)
scale = Vector2(0.5, 0.5)
texture = ExtResource("2_53qxq")

[node name="TileMapHook" parent="Sprite2d6" instance=ExtResource("3_ef18j")]
align_parent = true

[node name="Sprite2d7" type="Sprite2D" parent="."]
position = Vector2(1060, 943)
scale = Vector2(0.5, 0.5)
texture = ExtResource("2_53qxq")

[node name="TileMapHook" parent="Sprite2d7" instance=ExtResource("3_ef18j")]
align_parent = true

[node name="Sprite2d8" type="Sprite2D" parent="."]
position = Vector2(1060, 943)
scale = Vector2(0.5, 0.5)
texture = ExtResource("2_53qxq")

[node name="TileMapHook" parent="Sprite2d8" instance=ExtResource("3_ef18j")]
align_parent = true

[node name="Sprite2d13" type="Sprite2D" parent="."]
position = Vector2(1696, 352)
scale = Vector2(0.5, 0.5)
texture = ExtResource("2_53qxq")

[node name="TileMapHook" parent="Sprite2d13" instance=ExtResource("3_ef18j")]
align_parent = true

[node name="Camera2d" type="Camera2D" parent="."]
position = Vector2(904, 536)
current = true
zoom = Vector2(0.6, 0.6)
