[gd_scene load_steps=20 format=3 uid="uid://xyy6k1qcdamn"]

[ext_resource type="Script" path="res://levels/playgrounds/follow_path_playground/follow_path_playground.gd" id="1_rruw7"]
[ext_resource type="TileSet" uid="uid://cm80x4pqcctgk" path="res://tilesets/main_tileset_debug.tres" id="2_5ok7b"]
[ext_resource type="Script" path="res://building_blocks/dynamic_rail/dynamic_rail.gd" id="2_51itx"]
[ext_resource type="Texture2D" uid="uid://b8spcg6v514dt" path="res://assets/placeholders/player1.png" id="3_ffrmn"]
[ext_resource type="PackedScene" path="res://building_blocks/tile_map_hook/tile_map_hook.tscn" id="3_hrrxu"]
[ext_resource type="PackedScene" uid="uid://c6j502r51l3wg" path="res://building_blocks/dynamic_rail/dynamic_rail.tscn" id="6_g8efs"]
[ext_resource type="Texture2D" uid="uid://ba1ds8w3a1tta" path="res://assets/placeholders/player2.png" id="7_qrejl"]

[sub_resource type="Curve2D" id="Curve2D_fi67b"]
_data = {
"points": PackedVector2Array(0, 0, 0, 0, 165, 129, 0, 0, 0, 0, 387, 130, 0, 0, 0, 0, 383, 653, 0, 0, 0, 0, 883, 700, 0, 0, 0, 0, 864, 380, 0, 0, 0, 0, 1160, 415)
}
point_count = 6

[sub_resource type="Curve2D" id="Curve2D_fkocu"]
_data = {
"points": PackedVector2Array(0, 0, 0, 0, 1107, 711, 0, 0, 0, 0, 1617, 834, 0, 0, 0, 0, 1490, 81)
}
point_count = 3

[sub_resource type="Curve2D" id="Curve2D_dym7q"]
_data = {
"points": PackedVector2Array(0, 0, 0, 0, 1791, 776, 0, 0, 0, 0, 1874, -204)
}
point_count = 2

[sub_resource type="Curve2D" id="Curve2D_pjg8b"]
_data = {
"points": PackedVector2Array(0, 0, 0, 0, 1790, 1036, 0, 0, 0, 0, 1690, 1033)
}
point_count = 2

[sub_resource type="Curve2D" id="Curve2D_cb2mg"]
_data = {
"points": PackedVector2Array(0, 0, 0, 0, 1801, 1284, 0, 0, 0, 0, 1714, 1280)
}
point_count = 2

[sub_resource type="Curve2D" id="Curve2D_6esxm"]
_data = {
"points": PackedVector2Array(0, 0, 0, 0, 1999, 1296, 0, 0, 0, 0, 2305, 1281)
}
point_count = 2

[sub_resource type="Curve2D" id="Curve2D_uo3uk"]
_data = {
"points": PackedVector2Array(0, 0, 0, 0, 2237, 988, 0, 0, 0, 0, 2567, 907)
}
point_count = 2

[sub_resource type="Curve2D" id="Curve2D_1h08b"]
_data = {
"points": PackedVector2Array(0, 0, 0, 0, 1830, 100, 0, 0, 0, 0, 1775, 98)
}
point_count = 2

[sub_resource type="Curve2D" id="Curve2D_moaeb"]
_data = {
"points": PackedVector2Array(0, 0, 0, 0, 2552, 992, 0, 0, 0, 0, 2509, 838)
}
point_count = 2

[sub_resource type="Curve2D" id="Curve2D_v8g1j"]
_data = {
"points": PackedVector2Array(0, 0, 0, 0, 2817, 999, 0, 0, 0, 0, 2782, 859)
}
point_count = 2

[sub_resource type="Curve2D" id="Curve2D_y2o1b"]
_data = {
"points": PackedVector2Array(0, 0, 0, 0, 3061, 1017, 0, 0, 0, 0, 3117, 890)
}
point_count = 2

[sub_resource type="Curve2D" id="Curve2D_gdv7s"]
_data = {
"points": PackedVector2Array(0, 0, 0, 0, 0, 0, 0, 0, 0, 0, 512, 0, 0, 0, 0, 0, 512, 384)
}
point_count = 3

[node name="FollowPathPlayground" type="Node2D"]
script = ExtResource("1_rruw7")

[node name="Maze" type="TileMap" parent="."]
tile_set = ExtResource("2_5ok7b")
format = 2
layer_0/tile_data = PackedInt32Array(65537, 589825, 3, 1, 655361, 0, 0, 524289, 0, 65536, 524289, 3, 65538, 327681, 2, 2, 655361, 0, 131075, 720897, 2, 131074, 524289, 1, 65539, 720897, 2, 3, 720897, 0, 196610, 524289, 1, 196611, 720897, 2, 262147, 393217, 1, 262146, 524289, 1, 327682, 524289, 3, 327683, 589825, 3, 327684, 589825, 3, 262148, 655361, 0, 262149, 655361, 0, 327685, 589825, 3, 327686, 589825, 3, 262150, 327681, 1, 262151, 720897, 2, 327687, 720897, 3, 196615, 393217, 2, 131079, 655361, 0, 131078, 524289, 0, 196614, 524289, 1, 196616, 589825, 3, 131080, 655361, 0, 196617, 720897, 3, 131081, 720897, 0, 393226, 589825, 3, 393227, 589825, 3, 393228, 720897, 3, 327688, 524289, 0, 393224, 524289, 3, 327689, 655361, 0, 393225, 589825, 3, 327690, 655361, 0, 11, 524289, 0, 65547, 524289, 1, 131083, 524289, 1, 196619, 524289, 1, 262155, 524289, 1, 327691, 327681, 1, 12, 720897, 0, 65548, 720897, 2, 131084, 720897, 2, 196620, 720897, 2, 262156, 720897, 2, 327692, 720897, 2, 262152, 655361, 1, 262153, 655361, 1, 262154, 655361, 1, 196618, 655361, 1, 131082, 655361, 1, 65546, 655361, 1, 10, 655361, 1, 9, 655361, 1, 8, 655361, 1, 7, 655361, 1, 6, 655361, 1, 5, 655361, 1, 4, 655361, 1, 65540, 655361, 1, 65541, 655361, 1, 65542, 655361, 1, 65543, 655361, 1, 65544, 655361, 1, 65545, 655361, 1, 131076, 655361, 1, 131077, 655361, 1, 196613, 655361, 1, 196612, 655361, 1, 131072, 524289, 0, 131073, 720897, 0, 196609, 720897, 2, 262145, 720897, 2, 327681, 720897, 2, 393217, 720897, 2, 393218, 655361, 1, 393219, 655361, 1, 393220, 655361, 1, 393221, 655361, 1, 393222, 655361, 1, 393223, 655361, 1, 393216, 524289, 1, 327680, 524289, 1, 262144, 524289, 1, 196608, 524289, 1, 131085, 524289, 0, 196621, 524289, 1, 262157, 524289, 1, 327693, 524289, 1, 393229, 524289, 3, 131086, 720897, 0, 196622, 720897, 2, 262158, 720897, 2, 327694, 720897, 2, 393230, 720897, 3, 458752, 524289, 1, 524288, 524289, 3, 458753, 393217, 1, 524289, 589825, 3, 458754, 655361, 0, 524290, 589825, 3, 458755, 655361, 0, 524291, 589825, 3, 458756, 655361, 0, 524292, 589825, 3, 458757, 655361, 0, 524293, 589825, 3, 458758, 655361, 0, 524294, 589825, 3, 458759, 655361, 0, 524295, 589825, 3, 458760, 655361, 0, 524296, 589825, 3, 458761, 655361, 0, 524297, 589825, 3, 458762, 655361, 0, 524298, 589825, 3, 458763, 655361, 0, 524299, 589825, 3, 458764, 655361, 0, 524300, 589825, 3, 458765, 655361, 0, 524301, 589825, 3, 458766, 720897, 0, 524302, 720897, 3, 655360, 524289, 3, 655361, 589825, 3, 655362, 589825, 3, 655363, 589825, 3, 655364, 589825, 3, 655365, 589825, 3, 655366, 589825, 3, 655367, 589825, 3, 655368, 589825, 3, 655369, 589825, 3, 655370, 589825, 3, 655371, 589825, 3, 655372, 589825, 3, 655373, 589825, 3, 655374, 720897, 3, 589824, 524289, 0, 589825, 655361, 0, 589826, 655361, 0, 589827, 655361, 0, 589828, 655361, 0, 589829, 655361, 0, 589830, 655361, 0, 589831, 655361, 0, 589832, 655361, 0, 589833, 655361, 0, 589834, 655361, 0, 589835, 655361, 0, 589836, 655361, 0, 589837, 655361, 0, 589838, 720897, 0, 65552, 720897, 2, 131088, 720897, 2, 196624, 393217, 1, 262160, 393217, 2, 327696, 720897, 2, 393232, 720897, 2, 458768, 720897, 2, 524304, 720897, 2, 589840, 720897, 2, 655376, 720897, 3, 196625, 655361, 0, 262161, 589825, 3, 196626, 655361, 0, 262162, 589825, 3, 196627, 655361, 0, 262163, 589825, 3, 196628, 720897, 0, 262164, 720897, 3, 65551, 524289, 1, 131087, 524289, 1, 196623, 524289, 1, 262159, 524289, 1, 327695, 524289, 1, 393231, 524289, 1, 458767, 524289, 1, 524303, 524289, 1, 589839, 524289, 1, 655375, 524289, 3, 16, 720897, 0, 15, 524289, 0, 327698, 720897, 0, 393234, 720897, 2, 458770, 720897, 2, 524306, 720897, 2, 589842, 720897, 2, 655378, 720897, 3, 327697, 524289, 0, 393233, 524289, 1, 458769, 524289, 1, 524305, 524289, 1, 589841, 524289, 1, 655377, 524289, 3, 13, 524289, 0, 65549, 524289, 3, 14, 720897, 0, 65550, 720897, 3, 393236, 720897, 2, 458772, 720897, 2, 524308, 720897, 2, 589844, 720897, 2, 655380, 720897, 3, 327699, 524289, 0, 393235, 524289, 1, 458771, 524289, 1, 524307, 524289, 1, 589843, 524289, 1, 655379, 524289, 3, 327700, 720897, 0, 327702, 720897, 0, 393238, 720897, 2, 458774, 720897, 2, 524310, 720897, 2, 589846, 720897, 2, 655382, 720897, 3, 327701, 524289, 0, 393237, 524289, 1, 458773, 524289, 1, 524309, 524289, 1, 589845, 524289, 1, 655381, 524289, 3, 327703, 524289, 0, 393239, 524289, 1, 458775, 524289, 1, 524311, 524289, 1, 589847, 524289, 1, 655383, 524289, 3, 327704, 720897, 0, 393240, 720897, 2, 458776, 720897, 2, 524312, 720897, 2, 589848, 720897, 2, 655384, 720897, 3, 983040, 524289, 3, 983041, 589825, 3, 917504, 524289, 0, 917505, 655361, 0, 983042, 589825, 3, 917506, 655361, 0, 983043, 589825, 3, 917507, 655361, 0, 983044, 589825, 3, 917508, 655361, 0, 983045, 589825, 3, 917509, 327681, 1, 983046, 720897, 3, 917510, 720897, 2, 983047, 655361, 1, 917511, 655361, 1, 851974, 720897, 2, 851973, 524289, 1, 786432, 524289, 3, 786433, 589825, 3, 720896, 524289, 0, 720897, 655361, 0, 720898, 655361, 0, 786434, 589825, 3, 720899, 655361, 0, 786435, 589825, 3, 720900, 655361, 0, 786436, 589825, 3, 720901, 655361, 0, 786437, 327681, 2, 720902, 655361, 0, 786438, 393217, 2, 720903, 720897, 0, 786439, 720897, 3, 851975, 655361, 1, 851968, 655361, 1, 851969, 655361, 1, 851970, 655361, 1, 851971, 655361, 1, 851972, 655361, 1, 720904, 655361, 1, 786440, 655361, 1, 851976, 655361, 1, 917512, 655361, 1, 983048, 655361, 1, 786441, 524289, 3, 786442, 589825, 3, 786443, 589825, 3, 786444, 589825, 3, 786445, 327681, 2, 851981, 524289, 1, 917517, 524289, 1, 786446, 720897, 2, 851982, 720897, 2, 917518, 720897, 2, 720905, 524289, 0, 720906, 655361, 0, 720907, 655361, 0, 720908, 655361, 0, 720909, 655361, 0, 720910, 720897, 0, 983053, 524289, 3, 983054, 720897, 3, 851977, 655361, 1, 851978, 655361, 1, 851979, 655361, 1, 851980, 655361, 1, 917516, 655361, 1, 983052, 655361, 1, 983051, 655361, 1, 983050, 655361, 1, 983049, 655361, 1, 917513, 655361, 1, 917514, 655361, 1, 917515, 655361, 1, -655362, 655361, 1, -589826, 655361, 1, -524290, 655361, 1, -458754, 655361, 1, -393218, 655361, 1, -327682, 655361, 1, -262146, 655361, 1, -196610, 655361, 1, -131074, 655361, 1, -65538, 655361, 1, -2, 655361, 1, -655361, 655361, 1, -589825, 655361, 1, -524289, 655361, 1, -458753, 655361, 1, -393217, 655361, 1, -327681, 655361, 1, -262145, 655361, 1, -196609, 655361, 1, -131073, 655361, 1, -65537, 655361, 1, -1, 655361, 1, -720896, 655361, 1, -655360, 655361, 1, -589824, 655361, 1, -524288, 655361, 1, -458752, 655361, 1, -393216, 655361, 1, -327680, 655361, 1, -262144, 655361, 1, -196608, 655361, 1, -131072, 655361, 1, -65536, 655361, 1, -720895, 655361, 1, -655359, 655361, 1, -589823, 655361, 1, -524287, 655361, 1, -458751, 655361, 1, -393215, 655361, 1, -327679, 655361, 1, -262143, 655361, 1, -196607, 655361, 1, -131071, 655361, 1, -65535, 655361, 1, -720894, 655361, 1, -655358, 655361, 1, -589822, 655361, 1, -524286, 655361, 1, -458750, 655361, 1, -393214, 655361, 1, -327678, 655361, 1, -262142, 655361, 1, -196606, 655361, 1, -131070, 655361, 1, -65534, 655361, 1, -720893, 655361, 1, -655357, 655361, 1, -589821, 655361, 1, -524285, 655361, 1, -458749, 655361, 1, -393213, 655361, 1, -327677, 655361, 1, -262141, 655361, 1, -196605, 655361, 1, -131069, 655361, 1, -65533, 655361, 1, -720892, 655361, 1, -655356, 655361, 1, -589820, 655361, 1, -524284, 655361, 1, -458748, 655361, 1, -393212, 655361, 1, -327676, 655361, 1, -262140, 655361, 1, -196604, 655361, 1, -131068, 655361, 1, -65532, 655361, 1, -720891, 655361, 1, -655355, 655361, 1, -589819, 655361, 1, -524283, 655361, 1, -458747, 655361, 1, -393211, 655361, 1, -327675, 655361, 1, -262139, 655361, 1, -196603, 655361, 1, -131067, 655361, 1, -65531, 655361, 1, -720890, 655361, 1, -655354, 655361, 1, -589818, 655361, 1, -524282, 655361, 1, -458746, 655361, 1, -393210, 655361, 1, -327674, 655361, 1, -262138, 655361, 1, -196602, 655361, 1, -131066, 655361, 1, -65530, 655361, 1, -720889, 655361, 1, -655353, 655361, 1, -589817, 655361, 1, -524281, 655361, 1, -458745, 655361, 1, -393209, 655361, 1, -327673, 655361, 1, -262137, 655361, 1, -196601, 655361, 1, -131065, 655361, 1, -65529, 655361, 1, -720888, 655361, 1, -655352, 655361, 1, -589816, 655361, 1, -524280, 655361, 1, -458744, 655361, 1, -393208, 655361, 1, -327672, 655361, 1, -262136, 655361, 1, -196600, 655361, 1, -131064, 655361, 1, -65528, 655361, 1, -720887, 655361, 1, -655351, 655361, 1, -589815, 655361, 1, -524279, 655361, 1, -458743, 655361, 1, -393207, 655361, 1, -327671, 655361, 1, -262135, 655361, 1, -196599, 655361, 1, -131063, 655361, 1, -65527, 655361, 1, -720886, 655361, 1, -655350, 655361, 1, -589814, 655361, 1, -524278, 655361, 1, -458742, 655361, 1, -393206, 655361, 1, -327670, 655361, 1, -262134, 655361, 1, -196598, 655361, 1, -131062, 655361, 1, -65526, 655361, 1, -720885, 655361, 1, -655349, 655361, 1, -589813, 655361, 1, -524277, 655361, 1, -458741, 655361, 1, -393205, 655361, 1, -327669, 655361, 1, -262133, 655361, 1, -196597, 655361, 1, -131061, 655361, 1, -65525, 655361, 1, -720884, 655361, 1, -655348, 655361, 1, -589812, 655361, 1, -524276, 655361, 1, -458740, 655361, 1, -393204, 655361, 1, -327668, 655361, 1, -262132, 655361, 1, -196596, 655361, 1, -131060, 655361, 1, -65524, 655361, 1, -720883, 655361, 1, -655347, 655361, 1, -589811, 655361, 1, -524275, 655361, 1, -458739, 655361, 1, -393203, 655361, 1, -327667, 655361, 1, -262131, 655361, 1, -196595, 655361, 1, -131059, 655361, 1, -65523, 655361, 1, -720882, 655361, 1, -655346, 655361, 1, -589810, 655361, 1, -524274, 655361, 1, -458738, 655361, 1, -393202, 655361, 1, -327666, 655361, 1, -262130, 655361, 1, -196594, 655361, 1, -131058, 655361, 1, -65522, 655361, 1, -720881, 655361, 1, -655345, 655361, 1, -589809, 655361, 1, -524273, 655361, 1, -458737, 655361, 1, -393201, 655361, 1, -327665, 655361, 1, -262129, 655361, 1, -196593, 655361, 1, -131057, 655361, 1, -65521, 655361, 1, -720880, 655361, 1, -655344, 655361, 1, -589808, 655361, 1, -524272, 655361, 1, -458736, 655361, 1, -393200, 655361, 1, -327664, 655361, 1, -262128, 655361, 1, -196592, 655361, 1, -131056, 655361, 1, -65520, 655361, 1, -720879, 655361, 1, -655343, 655361, 1, -589807, 655361, 1, -524271, 655361, 1, -458735, 655361, 1, -393199, 655361, 1, -327663, 655361, 1, -262127, 655361, 1, -196591, 655361, 1, -131055, 655361, 1, -65519, 655361, 1, -720878, 655361, 1, -655342, 655361, 1, -589806, 655361, 1, -524270, 655361, 1, -458734, 655361, 1, -393198, 655361, 1, -327662, 655361, 1, -262126, 655361, 1, -196590, 655361, 1, -131054, 655361, 1, -65518, 655361, 1, -720877, 655361, 1, -655341, 655361, 1, -589805, 655361, 1, -524269, 655361, 1, -458733, 655361, 1, -393197, 655361, 1, -327661, 655361, 1, -262125, 655361, 1, -196589, 655361, 1, -131053, 655361, 1, -65517, 655361, 1, -720876, 655361, 1, -655340, 655361, 1, -589804, 655361, 1, -524268, 655361, 1, -458732, 655361, 1, -393196, 655361, 1, -327660, 655361, 1, -262124, 655361, 1, -196588, 655361, 1, -131052, 655361, 1, -65516, 655361, 1, -720875, 655361, 1, -655339, 655361, 1, -589803, 655361, 1, -524267, 655361, 1, -458731, 655361, 1, -393195, 655361, 1, -327659, 655361, 1, -262123, 655361, 1, -196587, 655361, 1, -131051, 655361, 1, -65515, 655361, 1, -720874, 655361, 1, -655338, 655361, 1, -589802, 655361, 1, -524266, 655361, 1, -458730, 655361, 1, -393194, 655361, 1, -327658, 655361, 1, -262122, 655361, 1, -196586, 655361, 1, -131050, 655361, 1, -65514, 655361, 1, -720873, 655361, 1, -655337, 655361, 1, -589801, 655361, 1, -524265, 655361, 1, -458729, 655361, 1, -393193, 655361, 1, -327657, 655361, 1, -262121, 655361, 1, -196585, 655361, 1, -131049, 655361, 1, -65513, 655361, 1, -720872, 655361, 1, -655336, 655361, 1, -589800, 655361, 1, -524264, 655361, 1, -458728, 655361, 1, -393192, 655361, 1, -327656, 655361, 1, -262120, 655361, 1, -196584, 655361, 1, -131048, 655361, 1, -65512, 655361, 1, -720871, 655361, 1, -655335, 655361, 1, -589799, 655361, 1, -524263, 655361, 1, -458727, 655361, 1, -393191, 655361, 1, -327655, 655361, 1, -262119, 655361, 1, -196583, 655361, 1, -131047, 655361, 1, -65511, 655361, 1, -720870, 655361, 1, -655334, 655361, 1, -589798, 655361, 1, -524262, 655361, 1, -458726, 655361, 1, -393190, 655361, 1, -327654, 655361, 1, -262118, 655361, 1, -196582, 655361, 1, -131046, 655361, 1, -65510, 655361, 1, -720869, 655361, 1, -655333, 655361, 1, -589797, 655361, 1, -524261, 655361, 1, -458725, 655361, 1, -393189, 655361, 1, -327653, 655361, 1, -262117, 655361, 1, -196581, 655361, 1, -131045, 655361, 1, -65509, 655361, 1, 1114110, 655361, 1, 1179646, 655361, 1, 1245182, 655361, 1, 1310718, 655361, 1, 1376254, 655361, 1, 1441790, 655361, 1, 1507326, 655361, 1, 1572862, 655361, 1, 1638398, 655361, 1, 1703934, 655361, 1, 1769470, 655361, 1, 1835006, 655361, 1, 1114111, 655361, 1, 1179647, 655361, 1, 1245183, 655361, 1, 1310719, 655361, 1, 1376255, 655361, 1, 1441791, 655361, 1, 1507327, 655361, 1, 1572863, 655361, 1, 1638399, 655361, 1, 1703935, 655361, 1, 1769471, 655361, 1, 1835007, 655361, 1, 1048576, 655361, 1, 1114112, 655361, 1, 1179648, 655361, 1, 1245184, 655361, 1, 1310720, 655361, 1, 1376256, 655361, 1, 1441792, 655361, 1, 1507328, 655361, 1, 1572864, 655361, 1, 1638400, 655361, 1, 1703936, 655361, 1, 1769472, 655361, 1, 1048577, 655361, 1, 1114113, 655361, 1, 1179649, 655361, 1, 1245185, 655361, 1, 1310721, 655361, 1, 1376257, 655361, 1, 1441793, 655361, 1, 1507329, 655361, 1, 1572865, 655361, 1, 1638401, 655361, 1, 1703937, 655361, 1, 1769473, 655361, 1, 1048578, 655361, 1, 1114114, 655361, 1, 1179650, 655361, 1, 1245186, 655361, 1, 1310722, 655361, 1, 1376258, 655361, 1, 1441794, 655361, 1, 1507330, 655361, 1, 1572866, 655361, 1, 1638402, 655361, 1, 1703938, 655361, 1, 1769474, 655361, 1, 1048579, 655361, 1, 1114115, 655361, 1, 1179651, 655361, 1, 1245187, 655361, 1, 1310723, 655361, 1, 1376259, 655361, 1, 1441795, 655361, 1, 1507331, 655361, 1, 1572867, 655361, 1, 1638403, 655361, 1, 1703939, 655361, 1, 1769475, 655361, 1, 1048580, 655361, 1, 1114116, 655361, 1, 1179652, 655361, 1, 1245188, 655361, 1, 1310724, 655361, 1, 1376260, 655361, 1, 1441796, 655361, 1, 1507332, 655361, 1, 1572868, 655361, 1, 1638404, 655361, 1, 1703940, 655361, 1, 1769476, 655361, 1, 1048581, 655361, 1, 1114117, 655361, 1, 1179653, 655361, 1, 1245189, 655361, 1, 1310725, 655361, 1, 1376261, 655361, 1, 1441797, 655361, 1, 1507333, 655361, 1, 1572869, 655361, 1, 1638405, 655361, 1, 1703941, 655361, 1, 1769477, 655361, 1, 1048582, 655361, 1, 1114118, 655361, 1, 1179654, 655361, 1, 1245190, 655361, 1, 1310726, 655361, 1, 1376262, 655361, 1, 1441798, 655361, 1, 1507334, 655361, 1, 1572870, 655361, 1, 1638406, 655361, 1, 1703942, 655361, 1, 1769478, 655361, 1, 1048583, 655361, 1, 1114119, 655361, 1, 1179655, 655361, 1, 1245191, 655361, 1, 1310727, 655361, 1, 1376263, 655361, 1, 1441799, 655361, 1, 1507335, 655361, 1, 1572871, 655361, 1, 1638407, 655361, 1, 1703943, 655361, 1, 1769479, 655361, 1, 1048584, 655361, 1, 1114120, 655361, 1, 1179656, 655361, 1, 1245192, 655361, 1, 1310728, 655361, 1, 1376264, 655361, 1, 1441800, 655361, 1, 1507336, 655361, 1, 1572872, 655361, 1, 1638408, 655361, 1, 1703944, 655361, 1, 1769480, 655361, 1, 1048585, 655361, 1, 1114121, 655361, 1, 1179657, 655361, 1, 1245193, 655361, 1, 1310729, 655361, 1, 1376265, 655361, 1, 1441801, 655361, 1, 1507337, 655361, 1, 1572873, 655361, 1, 1638409, 655361, 1, 1703945, 655361, 1, 1769481, 655361, 1, 1048586, 655361, 1, 1114122, 655361, 1, 1179658, 655361, 1, 1245194, 655361, 1, 1310730, 655361, 1, 1376266, 655361, 1, 1441802, 655361, 1, 1507338, 655361, 1, 1572874, 655361, 1, 1638410, 655361, 1, 1703946, 655361, 1, 1769482, 655361, 1, 1048587, 655361, 1, 1114123, 655361, 1, 1179659, 655361, 1, 1245195, 655361, 1, 1310731, 655361, 1, 1376267, 655361, 1, 1441803, 655361, 1, 1507339, 655361, 1, 1572875, 655361, 1, 1638411, 655361, 1, 1703947, 655361, 1, 1769483, 655361, 1, 1048588, 655361, 1, 1114124, 655361, 1, 1179660, 655361, 1, 1245196, 655361, 1, 1310732, 655361, 1, 1376268, 655361, 1, 1441804, 655361, 1, 1507340, 655361, 1, 1572876, 655361, 1, 1638412, 655361, 1, 1703948, 655361, 1, 1769484, 655361, 1, 1048589, 655361, 1, 1114125, 655361, 1, 1179661, 655361, 1, 1245197, 655361, 1, 1310733, 655361, 1, 1376269, 655361, 1, 1441805, 655361, 1, 1507341, 655361, 1, 1572877, 655361, 1, 1638413, 655361, 1, 1703949, 655361, 1, 1769485, 655361, 1, 1048590, 655361, 1, 1114126, 655361, 1, 1179662, 655361, 1, 1245198, 655361, 1, 1310734, 655361, 1, 1376270, 655361, 1, 1441806, 655361, 1, 1507342, 655361, 1, 1572878, 655361, 1, 1638414, 655361, 1, 1703950, 655361, 1, 1769486, 655361, 1, 1048591, 655361, 1, 1114127, 655361, 1, 1179663, 655361, 1, 1245199, 655361, 1, 1310735, 655361, 1, 1376271, 655361, 1, 1441807, 655361, 1, 1507343, 655361, 1, 1572879, 655361, 1, 1638415, 655361, 1, 1703951, 655361, 1, 1769487, 655361, 1, 1048592, 655361, 1, 1114128, 655361, 1, 1179664, 655361, 1, 1245200, 655361, 1, 1310736, 655361, 1, 1376272, 655361, 1, 1441808, 655361, 1, 1507344, 655361, 1, 1572880, 655361, 1, 1638416, 655361, 1, 1703952, 655361, 1, 1769488, 655361, 1, 1048593, 655361, 1, 1114129, 655361, 1, 1179665, 655361, 1, 1245201, 655361, 1, 1310737, 655361, 1, 1376273, 655361, 1, 1441809, 655361, 1, 1507345, 655361, 1, 1572881, 655361, 1, 1638417, 655361, 1, 1703953, 655361, 1, 1769489, 655361, 1, 1048594, 655361, 1, 1114130, 655361, 1, 1179666, 655361, 1, 1245202, 655361, 1, 1310738, 655361, 1, 1376274, 655361, 1, 1441810, 655361, 1, 1507346, 655361, 1, 1572882, 655361, 1, 1638418, 655361, 1, 1703954, 655361, 1, 1769490, 655361, 1, 1048595, 655361, 1, 1114131, 655361, 1, 1179667, 655361, 1, 1245203, 655361, 1, 1310739, 655361, 1, 1376275, 655361, 1, 1441811, 655361, 1, 1507347, 655361, 1, 1572883, 655361, 1, 1638419, 655361, 1, 1703955, 655361, 1, 1769491, 655361, 1, 1048596, 655361, 1, 1114132, 655361, 1, 1179668, 655361, 1, 1245204, 655361, 1, 1310740, 655361, 1, 1376276, 655361, 1, 1441812, 655361, 1, 1507348, 655361, 1, 1572884, 655361, 1, 1638420, 655361, 1, 1703956, 655361, 1, 1769492, 655361, 1, 1048597, 655361, 1, 1114133, 655361, 1, 1179669, 655361, 1, 1245205, 655361, 1, 1310741, 655361, 1, 1376277, 655361, 1, 1441813, 655361, 1, 1507349, 655361, 1, 1572885, 655361, 1, 1638421, 655361, 1, 1703957, 655361, 1, 1769493, 655361, 1, 1048598, 655361, 1, 1114134, 655361, 1, 1179670, 655361, 1, 1245206, 655361, 1, 1310742, 655361, 1, 1376278, 655361, 1, 1441814, 655361, 1, 1507350, 655361, 1, 1572886, 655361, 1, 1638422, 655361, 1, 1703958, 655361, 1, 1769494, 655361, 1, 1048599, 655361, 1, 1114135, 655361, 1, 1179671, 655361, 1, 1245207, 655361, 1, 1310743, 655361, 1, 1376279, 655361, 1, 1441815, 655361, 1, 1507351, 655361, 1, 1572887, 655361, 1, 1638423, 655361, 1, 1703959, 655361, 1, 1769495, 655361, 1, 1048600, 655361, 1, 1114136, 655361, 1, 1179672, 655361, 1, 1245208, 655361, 1, 1310744, 655361, 1, 1376280, 655361, 1, 1441816, 655361, 1, 1507352, 655361, 1, 1572888, 655361, 1, 1638424, 655361, 1, 1703960, 655361, 1, 1769496, 655361, 1, 1048601, 655361, 1, 1114137, 655361, 1, 1179673, 655361, 1, 1245209, 655361, 1, 1310745, 655361, 1, 1376281, 655361, 1, 1441817, 655361, 1, 1507353, 655361, 1, 1572889, 655361, 1, 1638425, 655361, 1, 1703961, 655361, 1, 1769497, 655361, 1, 1048602, 655361, 1, 1114138, 655361, 1, 1179674, 655361, 1, 1245210, 655361, 1, 1310746, 655361, 1, 1376282, 655361, 1, 1441818, 655361, 1, 1507354, 655361, 1, 1572890, 655361, 1, 1638426, 655361, 1, 1703962, 655361, 1, 1769498, 655361, 1, 1048603, 655361, 1, 1114139, 655361, 1, 1179675, 655361, 1, 1245211, 655361, 1, 1310747, 655361, 1, 1376283, 655361, 1, 1441819, 655361, 1, 1507355, 655361, 1, 1572891, 655361, 1, 1638427, 655361, 1, 1703963, 655361, 1, 1769499, 655361, 1, 720911, 655361, 1, 786447, 655361, 1, 851983, 655361, 1, 917519, 655361, 1, 983055, 655361, 1, 720912, 655361, 1, 786448, 655361, 1, 851984, 655361, 1, 917520, 655361, 1, 983056, 655361, 1, 720913, 655361, 1, 786449, 655361, 1, 851985, 655361, 1, 917521, 655361, 1, 983057, 655361, 1, 720914, 655361, 1, 786450, 655361, 1, 851986, 655361, 1, 917522, 655361, 1, 983058, 655361, 1, 720915, 655361, 1, 786451, 655361, 1, 851987, 655361, 1, 917523, 655361, 1, 983059, 655361, 1, 720916, 655361, 1, 786452, 655361, 1, 851988, 655361, 1, 917524, 655361, 1, 983060, 655361, 1, 720917, 655361, 1, 786453, 655361, 1, 851989, 655361, 1, 917525, 655361, 1, 983061, 655361, 1, 720918, 655361, 1, 786454, 655361, 1, 851990, 655361, 1, 917526, 655361, 1, 983062, 655361, 1, 720919, 655361, 1, 786455, 655361, 1, 851991, 655361, 1, 917527, 655361, 1, 983063, 655361, 1, 720920, 655361, 1, 786456, 655361, 1, 851992, 655361, 1, 917528, 655361, 1, 983064, 655361, 1, 720921, 655361, 1, 786457, 655361, 1, 851993, 655361, 1, 917529, 655361, 1, 983065, 655361, 1, 720922, 655361, 1, 786458, 655361, 1, 851994, 655361, 1, 917530, 655361, 1, 983066, 655361, 1, 720923, 655361, 1, 786459, 655361, 1, 851995, 655361, 1, 917531, 655361, 1, 983067, 655361, 1, 65534, 655361, 1, 131070, 655361, 1, 196606, 655361, 1, 262142, 655361, 1, 327678, 655361, 1, 393214, 655361, 1, 458750, 655361, 1, 524286, 655361, 1, 589822, 655361, 1, 655358, 655361, 1, 720894, 655361, 1, 786430, 655361, 1, 851966, 655361, 1, 917502, 655361, 1, 983038, 655361, 1, 1048574, 655361, 1, 65535, 655361, 1, 131071, 655361, 1, 196607, 655361, 1, 262143, 655361, 1, 327679, 655361, 1, 393215, 655361, 1, 458751, 655361, 1, 524287, 655361, 1, 589823, 655361, 1, 655359, 655361, 1, 720895, 655361, 1, 786431, 655361, 1, 851967, 655361, 1, 917503, 655361, 1, 983039, 655361, 1, 1048575, 655361, 1, 17, 655361, 1, 65553, 655361, 1, 131089, 655361, 1, 18, 655361, 1, 65554, 655361, 1, 131090, 655361, 1, 19, 655361, 1, 65555, 655361, 1, 131091, 655361, 1, 20, 655361, 1, 65556, 655361, 1, 131092, 655361, 1, 21, 655361, 1, 65557, 655361, 1, 131093, 655361, 1, 22, 655361, 1, 65558, 655361, 1, 131094, 655361, 1, 23, 655361, 1, 65559, 655361, 1, 131095, 655361, 1, 24, 655361, 1, 65560, 655361, 1, 131096, 655361, 1, 25, 655361, 1, 65561, 655361, 1, 131097, 655361, 1, 26, 655361, 1, 65562, 655361, 1, 131098, 655361, 1, 27, 655361, 1, 65563, 655361, 1, 131099, 655361, 1, 196629, 655361, 1, 262165, 655361, 1, 196630, 655361, 1, 262166, 655361, 1, 196631, 655361, 1, 262167, 655361, 1, 196632, 655361, 1, 262168, 655361, 1, 196633, 655361, 1, 262169, 655361, 1, 196634, 655361, 1, 262170, 655361, 1, 196635, 655361, 1, 262171, 655361, 1, 327705, 655361, 1, 393241, 655361, 1, 458777, 655361, 1, 524313, 655361, 1, 589849, 655361, 1, 655385, 655361, 1, 327706, 655361, 1, 393242, 655361, 1, 458778, 655361, 1, 524314, 655361, 1, 589850, 655361, 1, 655386, 655361, 1, 327707, 655361, 1, 393243, 655361, 1, 458779, 655361, 1, 524315, 655361, 1, 589851, 655361, 1, 655387, 655361, 1)

[node name="DynamicRail" type="Path2D" parent="."]
curve = SubResource("Curve2D_fi67b")
script = ExtResource("2_51itx")
draw_rail_line = true
draw_rail_line_points_value = true

[node name="Rail" type="PathFollow2D" parent="DynamicRail"]
position = Vector2(165, 129)
rotation = 0.00450447
loop = false

[node name="Wagon" type="Sprite2D" parent="DynamicRail/Rail"]
scale = Vector2(0.5, 0.5)
texture = ExtResource("3_ffrmn")

[node name="TileMapHook" parent="DynamicRail" instance=ExtResource("3_hrrxu")]

[node name="RailLine" type="Line2D" parent="DynamicRail"]
width = 5.0

[node name="DynamicRail2" type="Path2D" parent="."]
curve = SubResource("Curve2D_fkocu")
script = ExtResource("2_51itx")
draw_rail_line = true
draw_rail_line_points_value = true
rail_line_color = Color(1, 1, 0, 1)

[node name="Rail" type="PathFollow2D" parent="DynamicRail2"]
position = Vector2(1107, 711)
rotation = 0.236657
loop = false

[node name="Wagon" type="Sprite2D" parent="DynamicRail2/Rail"]
scale = Vector2(0.5, 0.5)
texture = ExtResource("3_ffrmn")

[node name="TileMapHook" parent="DynamicRail2" instance=ExtResource("3_hrrxu")]

[node name="RailLine" type="Line2D" parent="DynamicRail2"]
width = 5.0

[node name="DynamicRail3" type="Path2D" parent="."]
curve = SubResource("Curve2D_dym7q")
script = ExtResource("2_51itx")
draw_rail_line = true
draw_rail_line_points_value = true

[node name="Rail" type="PathFollow2D" parent="DynamicRail3"]
position = Vector2(1791, 776)
rotation = -1.4863
loop = false

[node name="Wagon" type="Sprite2D" parent="DynamicRail3/Rail"]
scale = Vector2(0.5, 0.5)
texture = ExtResource("3_ffrmn")

[node name="TileMapHook" parent="DynamicRail3" instance=ExtResource("3_hrrxu")]

[node name="RailLine" type="Line2D" parent="DynamicRail3"]
width = 5.0

[node name="DynamicRail4" type="Path2D" parent="."]
curve = SubResource("Curve2D_pjg8b")
script = ExtResource("2_51itx")
go_ahead = true
draw_rail_line = true

[node name="Rail" type="PathFollow2D" parent="DynamicRail4"]
position = Vector2(1790, 1036)
rotation = -3.1116
loop = false

[node name="Wagon" type="Sprite2D" parent="DynamicRail4/Rail"]
scale = Vector2(0.5, 0.5)
texture = ExtResource("3_ffrmn")

[node name="TileMapHook" parent="DynamicRail4" instance=ExtResource("3_hrrxu")]

[node name="RailLine" type="Line2D" parent="DynamicRail4"]
width = 5.0

[node name="DynamicRail5" type="Path2D" parent="."]
curve = SubResource("Curve2D_cb2mg")
script = ExtResource("2_51itx")
go_ahead = true
speed_factor = 0.6

[node name="Rail" type="PathFollow2D" parent="DynamicRail5"]
position = Vector2(1801, 1284)
rotation = -3.09565
loop = false

[node name="Wagon" type="Sprite2D" parent="DynamicRail5/Rail"]
scale = Vector2(0.5, 0.5)
texture = ExtResource("3_ffrmn")

[node name="TileMapHook" parent="DynamicRail5" instance=ExtResource("3_hrrxu")]

[node name="RailLine" type="Line2D" parent="DynamicRail5"]
width = 5.0

[node name="DynamicRail6" type="Path2D" parent="."]
curve = SubResource("Curve2D_6esxm")
script = ExtResource("2_51itx")
go_ahead = true
draw_rail_line = true

[node name="Rail" type="PathFollow2D" parent="DynamicRail6"]
position = Vector2(1999, 1296)
rotation = -0.0489804
loop = false

[node name="Wagon" type="Sprite2D" parent="DynamicRail6/Rail"]
scale = Vector2(0.5, 0.5)
texture = ExtResource("3_ffrmn")

[node name="TileMapHook" parent="DynamicRail6" instance=ExtResource("3_hrrxu")]

[node name="RailLine" type="Line2D" parent="DynamicRail6"]
width = 5.0

[node name="DynamicRail7" type="Path2D" parent="."]
curve = SubResource("Curve2D_uo3uk")
script = ExtResource("2_51itx")
go_ahead = true
speed_factor = 0.5
draw_rail_line = true
draw_rail_line_points_value = true

[node name="Rail" type="PathFollow2D" parent="DynamicRail7"]
position = Vector2(2237, 988)
rotation = -0.240696
loop = false

[node name="Wagon" type="Sprite2D" parent="DynamicRail7/Rail"]
scale = Vector2(0.5, 0.5)
texture = ExtResource("3_ffrmn")

[node name="TileMapHook" parent="DynamicRail7" instance=ExtResource("3_hrrxu")]

[node name="RailLine" type="Line2D" parent="DynamicRail7"]
width = 5.0

[node name="DynamicRail8" type="Path2D" parent="."]
curve = SubResource("Curve2D_1h08b")
script = ExtResource("2_51itx")
draw_rail_line = true
draw_rail_line_points_value = true

[node name="Rail" type="PathFollow2D" parent="DynamicRail8"]
position = Vector2(1830, 100)
rotation = -3.10525
loop = false

[node name="Wagon" type="Sprite2D" parent="DynamicRail8/Rail"]
scale = Vector2(0.5, 0.5)
texture = ExtResource("3_ffrmn")

[node name="TileMapHook" parent="DynamicRail8" instance=ExtResource("3_hrrxu")]

[node name="RailLine" type="Line2D" parent="DynamicRail8"]
width = 5.0

[node name="DynamicRail9" type="Path2D" parent="."]
curve = SubResource("Curve2D_moaeb")
script = ExtResource("2_51itx")
go_ahead = true
speed_factor = 0.5
draw_rail_line = true
draw_rail_line_points_value = true

[node name="Rail" type="PathFollow2D" parent="DynamicRail9"]
position = Vector2(2552, 992)
rotation = -1.84308
loop = false

[node name="Wagon" type="Sprite2D" parent="DynamicRail9/Rail"]
scale = Vector2(0.5, 0.5)
texture = ExtResource("3_ffrmn")

[node name="TileMapHook" parent="DynamicRail9" instance=ExtResource("3_hrrxu")]

[node name="RailLine" type="Line2D" parent="DynamicRail9"]
width = 5.0

[node name="DynamicRail10" type="Path2D" parent="."]
curve = SubResource("Curve2D_v8g1j")
script = ExtResource("2_51itx")
go_ahead = true
speed_factor = 0.6
draw_rail_line = true
draw_rail_line_points_value = true

[node name="Rail" type="PathFollow2D" parent="DynamicRail10"]
position = Vector2(2817, 999)
rotation = -1.81578
loop = false

[node name="Wagon" type="Sprite2D" parent="DynamicRail10/Rail"]
scale = Vector2(0.5, 0.5)
texture = ExtResource("3_ffrmn")

[node name="TileMapHook" parent="DynamicRail10" instance=ExtResource("3_hrrxu")]

[node name="RailLine" type="Line2D" parent="DynamicRail10"]
width = 5.0

[node name="DynamicRail11" type="Path2D" parent="."]
curve = SubResource("Curve2D_y2o1b")
script = ExtResource("2_51itx")
go_ahead = true
speed_factor = 0.6
draw_rail_line = true
draw_rail_line_points_value = true

[node name="Rail" type="PathFollow2D" parent="DynamicRail11"]
position = Vector2(3061, 1017)
rotation = -1.1555
loop = false

[node name="Wagon" type="Sprite2D" parent="DynamicRail11/Rail"]
scale = Vector2(0.5, 0.5)
texture = ExtResource("3_ffrmn")

[node name="TileMapHook" parent="DynamicRail11" instance=ExtResource("3_hrrxu")]

[node name="RailLine" type="Line2D" parent="DynamicRail11"]
width = 5.0

[node name="DynamicRail12" parent="." instance=ExtResource("6_g8efs")]
go_ahead = true
speed_factor = 0.8

[node name="Rail" parent="DynamicRail12" index="0"]
position = Vector2(127.199, 1534.8)

[node name="DynamicRail13" parent="." instance=ExtResource("6_g8efs")]
position = Vector2(1280, 1536)
curve = SubResource("Curve2D_gdv7s")

[node name="Passenger" type="Sprite2D" parent="DynamicRail13"]
scale = Vector2(0.5, 0.5)
texture = ExtResource("7_qrejl")

[node name="Camera2d" type="Camera2D" parent="."]
position = Vector2(1616, 1016)
scale = Vector2(0.954575, 1.064)
zoom = Vector2(0.3, 0.3)

[node name="Timer" type="Timer" parent="."]
wait_time = 2.0
autostart = true

[node name="Timer2" type="Timer" parent="."]

[node name="Timer3" type="Timer" parent="."]
one_shot = true
autostart = true

[connection signal="on_start" from="DynamicRail12" to="." method="_on_dynamic_rail_12_on_start"]
[connection signal="on_stop" from="DynamicRail12" to="." method="_on_dynamic_rail_12_on_stop"]
[connection signal="timeout" from="Timer" to="." method="_on_timer_timeout"]
[connection signal="timeout" from="Timer2" to="." method="_on_timer_2_timeout"]
[connection signal="timeout" from="Timer3" to="." method="_on_timer_3_timeout"]

[editable path="DynamicRail12"]
