[gd_scene load_steps=7 format=3 uid="uid://c24nssmfbvvd3"]

[ext_resource type="TileSet" uid="uid://cm80x4pqcctgk" path="res://tilesets/main_tileset_debug.tres" id="1_ass63"]
[ext_resource type="PackedScene" uid="uid://cjjp0tbrl3b2m" path="res://building_blocks/characters/user_placeholder/user_placeholder.tscn" id="2_g1nb6"]
[ext_resource type="PackedScene" uid="uid://b6erif007iq8b" path="res://building_blocks/collectables/energizer.tscn" id="3_ehc76"]
[ext_resource type="Script" path="res://building_blocks/collectable/behaviours/energizer_collected/energizer_collected.gd" id="4_seu25"]
[ext_resource type="PackedScene" uid="uid://dtgba30kgs12b" path="res://building_blocks/characters/enemies/pinky.tscn" id="5_lfa0c"]

[sub_resource type="Curve2D" id="Curve2D_a1hfm"]
_data = {
"points": PackedVector2Array(0, 0, 0, 0, 641, 1028, 0, 0, 0, 0, 1, 1032, 0, 0, 0, 0, -3, 652, 0, 0, 0, 0, 643, 642)
}
point_count = 4

[node name="PinkyPlayground" type="Node2D"]

[node name="Maze" type="TileMap" parent="."]
tile_set = ExtResource("1_ass63")
format = 2
layer_0/tile_data = PackedInt32Array(65537, 524289, 0, 65538, 655361, 0, 65539, 655361, 0, 65540, 655361, 0, 65541, 655361, 0, 65542, 655361, 0, 65543, 655361, 0, 65544, 655361, 0, 65545, 655361, 0, 65546, 655361, 0, 65547, 655361, 0, 131083, 393217, 2, 196619, 720897, 2, 262155, 393217, 1, 327691, 393217, 2, 131082, 327681, 2, 196618, 524289, 1, 262154, 524289, 1, 327690, 524289, 1, 131081, 589825, 3, 131080, 589825, 3, 131079, 589825, 3, 131078, 589825, 3, 131077, 589825, 3, 131076, 589825, 3, 131075, 589825, 3, 131074, 393217, 2, 131073, 524289, 1, 196609, 524289, 1, 262145, 524289, 1, 327681, 524289, 3, 327682, 589825, 3, 327683, 589825, 3, 262147, 655361, 0, 262146, 393217, 1, 196610, 720897, 2, 262148, 655361, 0, 262149, 720897, 0, 327685, 720897, 2, 327684, 327681, 2, 393220, 524289, 1, 458756, 524289, 1, 458757, 393217, 2, 393221, 393217, 1, 524292, 524289, 1, 589828, 327681, 1, 589829, 393217, 1, 524293, 720897, 2, 393222, 655361, 0, 393223, 655361, 0, 393224, 655361, 0, 393225, 655361, 0, 393226, 327681, 1, 393227, 720897, 2, 458763, 720897, 3, 458762, 589825, 3, 458761, 589825, 3, 458760, 589825, 3, 458759, 589825, 3, 458758, 589825, 3, 589827, 655361, 0, 589826, 655361, 0, 589825, 524289, 0, 655361, 524289, 1, 655362, 393217, 2, 655363, 589825, 3, 655364, 589825, 3, 655365, 589825, 3, 720897, 524289, 1, 786433, 524289, 1, 851969, 524289, 3, 851970, 589825, 3, 786434, 393217, 1, 720898, 720897, 2, 786435, 655361, 0, 786436, 655361, 0, 786437, 655361, 0, 786438, 327681, 1, 851974, 589825, 3, 851973, 589825, 3, 851972, 589825, 3, 851971, 589825, 3, 589830, 655361, 0, 589831, 720897, 0, 655367, 720897, 2, 720903, 393217, 1, 786439, 393217, 2, 851975, 720897, 3, 720902, 524289, 1, 655366, 327681, 2, 720904, 655361, 0, 720905, 655361, 0, 720906, 655361, 0, 720907, 655361, 0, 786440, 589825, 3, 786441, 589825, 3, 786442, 589825, 3, 786443, 589825, 3, 720908, 655361, 0, 720909, 327681, 1, 786444, 589825, 3, 786445, 589825, 3, 720910, 720897, 2, 786446, 720897, 3, 655373, 524289, 1, 589837, 524289, 1, 524301, 524289, 1, 458765, 524289, 1, 655374, 720897, 2, 589838, 720897, 2, 524302, 720897, 2, 458766, 393217, 2, 262157, 655361, 0, 327693, 327681, 2, 393229, 524289, 1, 393230, 393217, 1, 327694, 720897, 2, 262158, 720897, 0, 262156, 655361, 0, 327692, 589825, 3, 393231, 655361, 0, 393232, 655361, 0, 393233, 655361, 0, 393234, 327681, 1, 458770, 589825, 3, 458769, 589825, 3, 458768, 589825, 3, 458767, 589825, 3, 458771, 720897, 3, 393235, 720897, 2, 327699, 720897, 2, 262163, 720897, 2, 196627, 720897, 2, 131091, 720897, 2, 65555, 720897, 0, 65554, 655361, 0, 65553, 655361, 0, 65552, 655361, 0, 65551, 655361, 0, 65550, 655361, 0, 65549, 655361, 0, 65548, 655361, 0, 131084, 589825, 3, 131085, 589825, 3, 131086, 589825, 3, 131087, 589825, 3, 131088, 589825, 3, 131089, 589825, 3, 131090, 327681, 2, 196626, 524289, 1, 262162, 524289, 1, 327698, 524289, 1, 196611, 655361, 1, 196612, 655361, 1, 196613, 655361, 1, 196614, 655361, 1, 196615, 655361, 1, 196616, 655361, 1, 196617, 655361, 1, 262153, 655361, 1, 327689, 655361, 1, 327688, 655361, 1, 327687, 655361, 1, 327686, 655361, 1, 262150, 655361, 1, 262151, 655361, 1, 262152, 655361, 1, 524294, 655361, 1, 524295, 655361, 1, 524296, 655361, 1, 524297, 655361, 1, 524298, 655361, 1, 524299, 655361, 1, 524300, 655361, 1, 458764, 655361, 1, 393228, 655361, 1, 589836, 655361, 1, 655372, 655361, 1, 655371, 655361, 1, 655370, 655361, 1, 655369, 655361, 1, 655368, 655361, 1, 589832, 655361, 1, 589833, 655361, 1, 589834, 655361, 1, 589835, 655361, 1, 720899, 655361, 1, 720900, 655361, 1, 720901, 655361, 1, 196620, 655361, 1, 196621, 655361, 1, 196622, 655361, 1, 196623, 655361, 1, 196624, 655361, 1, 196625, 655361, 1, 262161, 655361, 1, 327697, 655361, 1, 327696, 655361, 1, 327695, 655361, 1, 262159, 655361, 1, 262160, 655361, 1, 0, 655361, 1, 1, 655361, 1, 2, 655361, 1, 3, 655361, 1, 4, 655361, 1, 5, 655361, 1, 6, 655361, 1, 7, 655361, 1, 8, 655361, 1, 9, 655361, 1, 10, 655361, 1, 11, 655361, 1, 12, 655361, 1, 13, 655361, 1, 14, 655361, 1, 15, 655361, 1, 16, 655361, 1, 17, 655361, 1, 18, 655361, 1, 19, 655361, 1, 20, 655361, 1, 131092, 655361, 1, 65556, 655361, 1, 65536, 655361, 1, 131072, 655361, 1, 196608, 655361, 1, 262144, 655361, 1, 327680, 655361, 1, 393216, 655361, 1, 393217, 655361, 1, 393218, 655361, 1, 393219, 655361, 1, 458755, 655361, 1, 524291, 655361, 1, 524290, 655361, 1, 458753, 655361, 1, 458752, 655361, 1, 458754, 655361, 1, 524289, 655361, 1, 524288, 655361, 1, 589824, 655361, 1, 655360, 655361, 1, 720896, 655361, 1, 786432, 655361, 1, 851968, 655361, 1, 917504, 655361, 1, 917505, 655361, 1, 917506, 655361, 1, 917507, 655361, 1, 917508, 655361, 1, 917509, 655361, 1, 917510, 655361, 1, 917511, 655361, 1, 917512, 655361, 1, 917513, 655361, 1, 917514, 655361, 1, 917515, 655361, 1, 917516, 655361, 1, 917517, 655361, 1, 917518, 655361, 1, 917519, 655361, 1, 917520, 655361, 1, 917521, 655361, 1, 917522, 655361, 1, 917523, 655361, 1, 917524, 655361, 1, 851988, 655361, 1, 786452, 655361, 1, 720916, 655361, 1, 655380, 655361, 1, 589844, 655361, 1, 524308, 655361, 1, 458772, 655361, 1, 393236, 655361, 1, 327700, 655361, 1, 262164, 655361, 1, 196628, 655361, 1, 524303, 655361, 1, 589839, 655361, 1, 655375, 655361, 1, 720911, 655361, 1, 786447, 655361, 1, 851983, 655361, 1, 851984, 655361, 1, 851985, 655361, 1, 851986, 655361, 1, 851987, 655361, 1, 786451, 655361, 1, 720915, 655361, 1, 655379, 655361, 1, 589843, 655361, 1, 524307, 655361, 1, 524306, 655361, 1, 524305, 655361, 1, 524304, 655361, 1, 786448, 655361, 1, 786449, 655361, 1, 786450, 655361, 1, 720914, 655361, 1, 655378, 655361, 1, 589842, 655361, 1, 589841, 655361, 1, 589840, 655361, 1, 655376, 655361, 1, 720912, 655361, 1, 720913, 655361, 1, 655377, 655361, 1, 851982, 655361, 1, 851981, 655361, 1, 851980, 655361, 1, 851979, 655361, 1, 851978, 655361, 1, 851977, 655361, 1, 851976, 655361, 1, -524288, 655361, 1, -458752, 655361, 1, -393216, 655361, 1, -327680, 655361, 1, -262144, 655361, 1, -196608, 655361, 1, -131072, 655361, 1, -65536, 655361, 1, -524287, 655361, 1, -458751, 655361, 1, -393215, 655361, 1, -327679, 655361, 1, -262143, 655361, 1, -196607, 655361, 1, -131071, 655361, 1, -65535, 655361, 1, -524286, 655361, 1, -458750, 655361, 1, -393214, 655361, 1, -327678, 655361, 1, -262142, 655361, 1, -196606, 655361, 1, -131070, 655361, 1, -65534, 655361, 1, -524285, 655361, 1, -458749, 655361, 1, -393213, 655361, 1, -327677, 655361, 1, -262141, 655361, 1, -196605, 655361, 1, -131069, 655361, 1, -65533, 655361, 1, -524284, 655361, 1, -458748, 655361, 1, -393212, 655361, 1, -327676, 655361, 1, -262140, 655361, 1, -196604, 655361, 1, -131068, 655361, 1, -65532, 655361, 1, -524283, 655361, 1, -458747, 655361, 1, -393211, 655361, 1, -327675, 655361, 1, -262139, 655361, 1, -196603, 655361, 1, -131067, 655361, 1, -65531, 655361, 1, -524282, 655361, 1, -458746, 655361, 1, -393210, 655361, 1, -327674, 655361, 1, -262138, 655361, 1, -196602, 655361, 1, -131066, 655361, 1, -65530, 655361, 1, -524281, 655361, 1, -458745, 655361, 1, -393209, 655361, 1, -327673, 655361, 1, -262137, 655361, 1, -196601, 655361, 1, -131065, 655361, 1, -65529, 655361, 1, -524280, 655361, 1, -458744, 655361, 1, -393208, 655361, 1, -327672, 655361, 1, -262136, 655361, 1, -196600, 655361, 1, -131064, 655361, 1, -65528, 655361, 1, -524279, 655361, 1, -458743, 655361, 1, -393207, 655361, 1, -327671, 655361, 1, -262135, 655361, 1, -196599, 655361, 1, -131063, 655361, 1, -65527, 655361, 1, -524278, 655361, 1, -458742, 655361, 1, -393206, 655361, 1, -327670, 655361, 1, -262134, 655361, 1, -196598, 655361, 1, -131062, 655361, 1, -65526, 655361, 1, -524277, 655361, 1, -458741, 655361, 1, -393205, 655361, 1, -327669, 655361, 1, -262133, 655361, 1, -196597, 655361, 1, -131061, 655361, 1, -65525, 655361, 1, -524276, 655361, 1, -458740, 655361, 1, -393204, 655361, 1, -327668, 655361, 1, -262132, 655361, 1, -196596, 655361, 1, -131060, 655361, 1, -65524, 655361, 1, -524275, 655361, 1, -458739, 655361, 1, -393203, 655361, 1, -327667, 655361, 1, -262131, 655361, 1, -196595, 655361, 1, -131059, 655361, 1, -65523, 655361, 1, -524274, 655361, 1, -458738, 655361, 1, -393202, 655361, 1, -327666, 655361, 1, -262130, 655361, 1, -196594, 655361, 1, -131058, 655361, 1, -65522, 655361, 1, -524273, 655361, 1, -458737, 655361, 1, -393201, 655361, 1, -327665, 655361, 1, -262129, 655361, 1, -196593, 655361, 1, -131057, 655361, 1, -65521, 655361, 1, -524272, 655361, 1, -458736, 655361, 1, -393200, 655361, 1, -327664, 655361, 1, -262128, 655361, 1, -196592, 655361, 1, -131056, 655361, 1, -65520, 655361, 1, -524271, 655361, 1, -458735, 655361, 1, -393199, 655361, 1, -327663, 655361, 1, -262127, 655361, 1, -196591, 655361, 1, -131055, 655361, 1, -65519, 655361, 1, -524270, 655361, 1, -458734, 655361, 1, -393198, 655361, 1, -327662, 655361, 1, -262126, 655361, 1, -196590, 655361, 1, -131054, 655361, 1, -65518, 655361, 1, -524269, 655361, 1, -458733, 655361, 1, -393197, 655361, 1, -327661, 655361, 1, -262125, 655361, 1, -196589, 655361, 1, -131053, 655361, 1, -65517, 655361, 1, -524268, 655361, 1, -458732, 655361, 1, -393196, 655361, 1, -327660, 655361, 1, -262124, 655361, 1, -196588, 655361, 1, -131052, 655361, 1, -65516, 655361, 1, 983040, 655361, 1, 1048576, 655361, 1, 1114112, 655361, 1, 983041, 655361, 1, 1048577, 655361, 1, 1114113, 655361, 1, 983042, 655361, 1, 1048578, 655361, 1, 1114114, 655361, 1, 983043, 655361, 1, 1048579, 655361, 1, 1114115, 655361, 1, 983044, 655361, 1, 1048580, 655361, 1, 1114116, 655361, 1, 983045, 655361, 1, 1048581, 655361, 1, 1114117, 655361, 1, 983046, 655361, 1, 1048582, 655361, 1, 1114118, 655361, 1, 983047, 655361, 1, 1048583, 655361, 1, 1114119, 655361, 1, 983048, 655361, 1, 1048584, 655361, 1, 1114120, 655361, 1, 983049, 655361, 1, 1048585, 655361, 1, 1114121, 655361, 1, 983050, 655361, 1, 1048586, 655361, 1, 1114122, 655361, 1, 983051, 655361, 1, 1048587, 655361, 1, 1114123, 655361, 1, 983052, 655361, 1, 1048588, 655361, 1, 1114124, 655361, 1, 983053, 655361, 1, 1048589, 655361, 1, 1114125, 655361, 1, 983054, 655361, 1, 1048590, 655361, 1, 1114126, 655361, 1, 983055, 655361, 1, 1048591, 655361, 1, 1114127, 655361, 1, 983056, 655361, 1, 1048592, 655361, 1, 1114128, 655361, 1, 983057, 655361, 1, 1048593, 655361, 1, 1114129, 655361, 1, 983058, 655361, 1, 1048594, 655361, 1, 1114130, 655361, 1, 983059, 655361, 1, 1048595, 655361, 1, 1114131, 655361, 1, 983060, 655361, 1, 1048596, 655361, 1, 1114132, 655361, 1, -524267, 655361, 1, -458731, 655361, 1, -393195, 655361, 1, -327659, 655361, 1, -262123, 655361, 1, -196587, 655361, 1, -131051, 655361, 1, -65515, 655361, 1, 21, 655361, 1, 65557, 655361, 1, 131093, 655361, 1, 196629, 655361, 1, 262165, 655361, 1, 327701, 655361, 1, 393237, 655361, 1, 458773, 655361, 1, 524309, 655361, 1, 589845, 655361, 1, 655381, 655361, 1, 720917, 655361, 1, 786453, 655361, 1, 851989, 655361, 1, 917525, 655361, 1, 983061, 655361, 1, 1048597, 655361, 1, 1114133, 655361, 1, -458753, 655361, 1, -393217, 655361, 1, -327681, 655361, 1, -262145, 655361, 1, -196609, 655361, 1, -131073, 655361, 1, -65537, 655361, 1, -1, 655361, 1, 65535, 655361, 1, 131071, 655361, 1, 196607, 655361, 1, 262143, 655361, 1, 327679, 655361, 1, 393215, 655361, 1, 458751, 655361, 1, 524287, 655361, 1, 589823, 655361, 1, 655359, 655361, 1, 720895, 655361, 1, 786431, 655361, 1, 851967, 655361, 1, 917503, 655361, 1, 983039, 655361, 1, 1048575, 655361, 1, 1114111, 655361, 1, 1179647, 655361, 1, 1245183, 655361, 1, 1310719, 655361, 1, 1376255, 655361, 1, 1441791, 655361, 1, 1179648, 655361, 1, 1245184, 655361, 1, 1310720, 655361, 1, 1376256, 655361, 1, 1179649, 655361, 1, 1245185, 655361, 1, 1310721, 655361, 1, 1376257, 655361, 1, 1179650, 655361, 1, 1245186, 655361, 1, 1310722, 655361, 1, 1376258, 655361, 1, 1179651, 655361, 1, 1245187, 655361, 1, 1310723, 655361, 1, 1376259, 655361, 1, 1179652, 655361, 1, 1245188, 655361, 1, 1310724, 655361, 1, 1376260, 655361, 1, 1179653, 655361, 1, 1245189, 655361, 1, 1310725, 655361, 1, 1376261, 655361, 1, 1179654, 655361, 1, 1245190, 655361, 1, 1310726, 655361, 1, 1376262, 655361, 1, 1179655, 655361, 1, 1245191, 655361, 1, 1310727, 655361, 1, 1376263, 655361, 1, 1179656, 655361, 1, 1245192, 655361, 1, 1310728, 655361, 1, 1376264, 655361, 1, 1179657, 655361, 1, 1245193, 655361, 1, 1310729, 655361, 1, 1376265, 655361, 1, 1179658, 655361, 1, 1245194, 655361, 1, 1310730, 655361, 1, 1376266, 655361, 1, 1179659, 655361, 1, 1245195, 655361, 1, 1310731, 655361, 1, 1376267, 655361, 1, 1179660, 655361, 1, 1245196, 655361, 1, 1310732, 655361, 1, 1376268, 655361, 1, 1179661, 655361, 1, 1245197, 655361, 1, 1310733, 655361, 1, 1376269, 655361, 1, 1179662, 655361, 1, 1245198, 655361, 1, 1310734, 655361, 1, 1376270, 655361, 1, 1179663, 655361, 1, 1245199, 655361, 1, 1310735, 655361, 1, 1376271, 655361, 1, 1179664, 655361, 1, 1245200, 655361, 1, 1310736, 655361, 1, 1376272, 655361, 1, 1179665, 655361, 1, 1245201, 655361, 1, 1310737, 655361, 1, 1376273, 655361, 1, 1179666, 655361, 1, 1245202, 655361, 1, 1310738, 655361, 1, 1376274, 655361, 1, 1179667, 655361, 1, 1245203, 655361, 1, 1310739, 655361, 1, 1376275, 655361, 1, 1179668, 655361, 1, 1245204, 655361, 1, 1310740, 655361, 1, 1376276, 655361, 1, 1179669, 655361, 1, 1245205, 655361, 1, 1310741, 655361, 1, 1376277, 655361, 1)

[node name="Player" parent="." instance=ExtResource("2_g1nb6")]
position = Vector2(236, 266)

[node name="Energizer" parent="." instance=ExtResource("3_ehc76")]
position = Vector2(2426, 256)
free = false

[node name="CollectableBehaviour" type="Node2D" parent="Energizer"]
script = ExtResource("4_seu25")

[node name="Pinky" parent="." instance=ExtResource("5_lfa0c")]
position = Vector2(256, 634)
speed_factor = 2.0
draw_rail_line = true
rail_line_color = Color(1, 0, 1, 1)

[node name="ScatteringPath" type="Path2D" parent="Pinky"]
curve = SubResource("Curve2D_a1hfm")

[node name="Line2D" type="Line2D" parent="."]

[node name="Camera2D" type="Camera2D" parent="."]
position = Vector2(1345, 908)
zoom = Vector2(0.388, 0.388)
