[gd_scene load_steps=3 format=3 uid="uid://cawll0isumihj"]

[ext_resource type="Script" path="res://building_blocks/collectables_handler/collectables_handler.gd" id="1_xmrci"]
[ext_resource type="PackedScene" path="res://building_blocks/tile_map_hook/tile_map_hook.tscn" id="2_mv2a8"]

[node name="CollectablesHandler" type="Node2D" node_paths=PackedStringArray("character")]
script = ExtResource("1_xmrci")
character = NodePath("")
random_spawn_min_interval = 5
random_collections_to_stop_spawn = 4
random_expires_after = 8

[node name="TileMapHook" parent="." instance=ExtResource("2_mv2a8")]

[node name="Spawned" type="Node2D" parent="."]

[node name="RandomSpawner" type="Timer" parent="."]

[connection signal="timeout" from="RandomSpawner" to="." method="spawn_randomly"]
