[gd_scene load_steps=3 format=3 uid="uid://bkegf75nab001"]

[ext_resource type="PackedScene" path="res://building_blocks/collectable/collectable.tscn" id="1_82w0i"]
[ext_resource type="Texture2D" uid="uid://bynbxck5rwwoi" path="res://assets/placeholders/coin2.png" id="2_o2p7y"]

[node name="Dot" instance=ExtResource("1_82w0i")]

[node name="Content" type="Sprite2D" parent="." index="3"]
position = Vector2(-1.66893e-06, 3.57628e-07)
texture = ExtResource("2_o2p7y")
