[gd_scene load_steps=2 format=3 uid="uid://b6erif007iq8b"]

[ext_resource type="PackedScene" path="res://building_blocks/collectable/collectable.tscn" id="1_6ai0q"]

[node name="Energizer" instance=ExtResource("1_6ai0q")]

[node name="Placeholder" parent="." index="2"]
position = Vector2(-9.53674e-07, 9.53674e-07)
scale = Vector2(1, 1)
